%YAML 1.1
%TAG !u! tag:unity3d.com,2011:
--- !u!114 &11400000
MonoBehaviour:
  m_ObjectHideFlags: 0
  m_CorrespondingSourceObject: {fileID: 0}
  m_PrefabInstance: {fileID: 0}
  m_PrefabAsset: {fileID: 0}
  m_GameObject: {fileID: 0}
  m_Enabled: 1
  m_EditorHideFlags: 0
  m_Script: {fileID: 11500000, guid: 1a7858d3f3918924082d17afcfe6a00d, type: 3}
  m_Name: MainCharacterTest
  m_EditorClassIdentifier: 
  CharacterSprite: {fileID: 21300000, guid: 90b4457e738eb124a9384b61c90a56fa, type: 3}
  HeadCharacterSprite: {fileID: 21300000, guid: 59e0e61ab2169394a98ea12ea9e838bf, type: 3}
  CharacterName: Clementine
  ID: 0
  CloseCircle: []
  ConversationColor: {r: 0.21692304, g: 0.752, b: 0.27476916, a: 1}
  Caracteristics:
    age: 13
    hairColor: 0
