%YAML 1.1
%TAG !u! tag:unity3d.com,2011:
--- !u!114 &11400000
MonoBehaviour:
  m_ObjectHideFlags: 0
  m_CorrespondingSourceObject: {fileID: 0}
  m_PrefabInstance: {fileID: 0}
  m_PrefabAsset: {fileID: 0}
  m_GameObject: {fileID: 0}
  m_Enabled: 1
  m_EditorHideFlags: 0
  m_Script: {fileID: 11500000, guid: 4432526e85ccad44493b6f894932c8e2, type: 3}
  m_Name: D002_Dtc_001
  m_EditorClassIdentifier: 
  OtherActorText: "Hola de nuevo. Me han estado dando se\xF1ales de que el hombre
    drogadicto puede ser el sospechoso del asesinato. \xBFHas visto algo?"
  OtherActorCharacter: {fileID: 11400000, guid: 0d85d4f9bf38a5e49b5fd2fd9f546d86, type: 2}
  MainCharacterText: 
  MainCharacter: {fileID: 11400000, guid: 1b7b96ea72b89d34a93e5cddaee68c79, type: 2}
  bIsResponseAvailable: 1
  NextConversationObject: {fileID: 0}
  ResponseA:
    ResponseText: Acusar sin pruebas al drogadicto
    conversationOption:
      type: 3
      MissionToCreate:
        MissionName: M_Opt_003
        MissionSteps: []
        ConversationStartedOnFinishedMission: {fileID: 11400000, guid: d87f0ea6b4e849c4a985df800e108aa7, type: 2}
        CharactersListeningID: 
  ResponseB:
    ResponseText: Proteger al drogadicto
    conversationOption:
      type: 2
      MissionToCreate:
        MissionName: 
        MissionSteps: []
        ConversationStartedOnFinishedMission: {fileID: 0}
        CharactersListeningID: 
  ContinueButton:
    type: 3
    MissionToCreate:
      MissionName: M_Opt_003
      MissionSteps: []
      ConversationStartedOnFinishedMission: {fileID: 11400000, guid: 24d8ccdc012f7b64eb31d71a89a27c6b, type: 2}
      CharactersListeningID: 
  MissionKeyListening: M_N_001
